<?xml version="1.0" encoding="utf-8"?>
<!-- Generator: Adobe Illustrator 20.0.0, SVG Export Plug-In . SVG Version: 6.00 Build 0)  -->
<svg version="1.1" id="Layer_1" xmlns="http://www.w3.org/2000/svg" xmlns:xlink="http://www.w3.org/1999/xlink" x="0px" y="0px"
	 viewBox="0 0 141.7 141.7" style="enable-background:new 0 0 141.7 141.7;" xml:space="preserve">
<style type="text/css">
	.st0{fill:none;stroke:#3E3E42;stroke-width:3;stroke-miterlimit:10;}
	.st1{fill:none;stroke:#3E3E42;stroke-width:3;stroke-linecap:round;stroke-linejoin:round;stroke-miterlimit:10;}
</style>
<g>
	<g>
		<circle class="st0" cx="26.6" cy="69.4" r="8.9"/>
		<path class="st1" d="M44.2,69.4c0,9.7-17.6,34.5-17.6,34.5S9,79.1,9,69.4s7.9-17.6,17.6-17.6S44.2,59.7,44.2,69.4z"/>
	</g>
	<g>
		<circle class="st0" cx="117.4" cy="49.1" r="7.4"/>
		<path class="st1" d="M132,49.1c0,8.1-14.6,28.7-14.6,28.7s-14.6-20.6-14.6-28.7s6.6-14.6,14.6-14.6S132,41.1,132,49.1z"/>
	</g>
	<path class="st0" d="M26.6,103.8c0,0,34.5-34.5,90.8-26"/>
</g>
</svg>
